tiles = 1014
ppat = 1012
music = 1000
avgEnemyLength = 9
###########################
#s..#.................#..e#
#.#...###############...#.#
#...#.................#...#
##.##.#.#.#.#.#.#.#.####.##
#...#.................#...#
#.#.#.###.#######.###.#.#.#
#.#.....................#.#
#.#.#.#.###.#.#.###.#.#.#.#
#.#...#.....#.#.....#...#.#
#.#.#.#######.#######.#.#.#
#.#...#.....#.#.....#...#.#
#.#.#.#.###.#.#.###.#.#.#.#
#.#.....................#.#
#.#.#.###.#######.###.#.#.#
#...#.................#...#
##.####.#.#.#.#.#.#.####.##
#...#.................#...#
#.#...###############...#.#
#e..#.................#..f#
###########################

end
