tiles = 1018
ppat = 1018
music = 1004
avgEnemyLength = 10
###########################
#s.......................e#
#.#.#.#.#.#.#.#.#.#.#.#.#.#
#.........................#
#.#.#.###.###.###.###.#.#.#
#...#.................#...#
#.#.#.###.#####.#####.#.#.#
#.....#.............#.....#
#.#.#.#.###.###.###.#.#.#.#
#...#...#.........#...#...#
#.#.#.#.#.#######.#.#.#.#e#
#.....#.#.........#.#.....#
#.#.#.#.#.#######.#.#.#.#.#
#...#.#.............#.#...#
#.#.#.#.#####.#####.#.#.#.#
#.........................#
#.#.###.###.###.###.###.#.#
#.........................#
#.#.#.#.#.#.#.#.#.#.#.#.#.#
#f.......................e#
###########################

end
