  # major_version = 1
  # minor_version = 0
  # development_stage = 0x80 (release)
  # prerelease_version_level = 0
  # region_code = 0x0000 (United States)
  # version_number = 1.0.0
  # version_message = 1.0.0 by Jesse Liesch
