# (decoded with TMPL 130)
PICT id: 151
Width: 24
Loop B&F: 1
Animations: (3 entries)
  0:
    Frame Delay: 0
    Loop Delay: 0
    Frame # Begin: 0
    Frame # End: 0
  1:
    Frame Delay: 0
    Loop Delay: 0
    Frame # Begin: 0
    Frame # End: 0
  2:
    Frame Delay: 10
    Loop Delay: 10
    Frame # Begin: 1
    Frame # End: 5