# (decoded with TMPL 130)
PICT id: 150
Width: 24
Loop B&F: 0
Animations: (3 entries)
  0:
    Frame Delay: 20
    Loop Delay: 2000000000
    Frame # Begin: 7
    Frame # End: 1
  1:
    Frame Delay: 20
    Loop Delay: 2000000000
    Frame # Begin: 2
    Frame # End: 8
  2:
    Frame Delay: 2000000000
    Loop Delay: 2000000000
    Frame # Begin: 8
    Frame # End: 8