# (decoded with TMPL 130)
PICT id: 159
Width: 24
Loop B&F: 1
Animations: (8 entries)
  0:
    Frame Delay: 4
    Loop Delay: 4
    Frame # Begin: 1
    Frame # End: 7
  1:
    Frame Delay: 4
    Loop Delay: 4
    Frame # Begin: 8
    Frame # End: 14
  2:
    Frame Delay: 4
    Loop Delay: 4
    Frame # Begin: 15
    Frame # End: 21
  3:
    Frame Delay: 4
    Loop Delay: 4
    Frame # Begin: 22
    Frame # End: 28
  4:
    Frame Delay: 4
    Loop Delay: 4
    Frame # Begin: 29
    Frame # End: 35
  5:
    Frame Delay: 4
    Loop Delay: 4
    Frame # Begin: 36
    Frame # End: 42
  6:
    Frame Delay: 4
    Loop Delay: 4
    Frame # Begin: 43
    Frame # End: 49
  7:
    Frame Delay: 4
    Loop Delay: 4
    Frame # Begin: 50
    Frame # End: 56