# (decoded with TMPL 130)
PICT id: 162
Width: 24
Loop B&F: 1
Animations: (2 entries)
  0:
    Frame Delay: 4
    Loop Delay: 4
    Frame # Begin: 2
    Frame # End: 2
  1:
    Frame Delay: 4
    Loop Delay: 4
    Frame # Begin: 1
    Frame # End: 5